<?xml version="1.0" encoding="UTF-8" standalone="no"?>
<svg width="36px" height="42px" viewBox="0 0 36 42" version="1.1" xmlns="http://www.w3.org/2000/svg" xmlns:xlink="http://www.w3.org/1999/xlink">
    <!-- Generator: Sketch 3.6.1 (26313) - http://www.bohemiancoding.com/sketch -->
    <title>icon_magento</title>
    <desc>Created with Sketch.</desc>
    <defs></defs>
    <g id="Pages" stroke="none" stroke-width="1" fill="none" fill-rule="evenodd">
        <g id="05-Create-new-engine" transform="translate(-575.000000, -372.000000)" fill="#49ACE2">
            <g id="Right" transform="translate(570.000000, 240.000000)">
                <g id="MAGENTO-EXTENSION" transform="translate(5.000000, 132.000000)">
                    <g id="icon_magento">
                        <path d="M18.0009429,0 L-3.55271368e-15,11.1371143 L-3.55271368e-15,30.8628857 L4.78748571,33.6944571 L4.78748571,13.8741429 L18.0009429,5.66288571 L31.2144857,13.8741429 L31.2144857,33.6944571 L36.0018857,30.8628857 L36.0018857,11.1371143 L18.0009429,0 Z" id="Shape"></path>
                        <path d="M20.8734857,35.8651714 L18.0009429,37.5641143 L15.1284857,35.8651714 L15.1284857,12.9303429 L9.67071429,16.2336857 L9.67071429,36.8089714 L18.0009429,42 L26.3311714,36.8089714 L26.3311714,16.2336857 L20.8734857,12.9303429 L20.8734857,35.8651714 Z" id="Shape"></path>
                    </g>
                </g>
            </g>
        </g>
    </g>
</svg>