<?xml version="1.0" encoding="UTF-8" standalone="no"?>
<svg width="42px" height="42px" viewBox="0 0 42 42" version="1.1" xmlns="http://www.w3.org/2000/svg" xmlns:xlink="http://www.w3.org/1999/xlink">
    <!-- Generator: Sketch 3.6.1 (26313) - http://www.bohemiancoding.com/sketch -->
    <title>icon_wordpress</title>
    <desc>Created with Sketch.</desc>
    <defs></defs>
    <g id="Pages" stroke="none" stroke-width="1" fill="none" fill-rule="evenodd">
        <g id="05-Create-new-engine" transform="translate(-572.000000, -296.000000)" fill="#49ACE2">
            <g id="Right" transform="translate(570.000000, 240.000000)">
                <g id="WORDPRESS-PLUGIN-+-Rectangle-208" transform="translate(2.000000, 56.000000)">
                    <g id="icon_wordpress">
                        <path d="M21.2857732,22.4431546 L16.3211134,36.8699381 C17.8041031,37.3046598 19.3719588,37.5445361 20.9965361,37.5445361 C22.9229072,37.5445361 24.7717732,37.211134 26.4907423,36.6062474 C26.4465773,36.5352371 26.4063093,36.4598969 26.3734021,36.3780619 L21.2857732,22.4431546 L21.2857732,22.4431546 Z" id="Shape"></path>
                        <path d="M4.4476701,20.9948041 C4.4476701,27.5455052 8.25451546,33.2059794 13.774701,35.8879175 L5.88129897,14.2605155 C4.96336082,16.3185155 4.4476701,18.5960412 4.4476701,20.9948041 L4.4476701,20.9948041 Z" id="Shape"></path>
                        <path d="M32.1663711,20.16 C32.1663711,18.1149897 31.4324536,16.6991134 30.8028866,15.5958557 C29.9637526,14.2328041 29.1774433,13.0788866 29.1774433,11.7154021 C29.1774433,10.1943093 30.3309278,8.77843299 31.9563711,8.77843299 C32.0299794,8.77843299 32.0992577,8.78752577 32.171134,8.79098969 C29.2276701,6.09476289 25.3056495,4.4476701 20.9969691,4.4476701 C15.2148247,4.4476701 10.1284948,7.41364948 7.17074227,11.9067835 C7.55870103,11.9184742 7.92371134,11.926701 8.23546392,11.926701 C9.9665567,11.926701 12.6463299,11.716701 12.6463299,11.716701 C13.5391546,11.6630103 13.6430722,12.9736701 12.7524124,13.0788866 C12.7524124,13.0788866 11.8556907,13.1841031 10.8585155,13.2369278 L16.883567,31.1614021 L20.5046598,20.2998557 L17.9257732,13.2364948 C17.0346804,13.1836701 16.1907835,13.0784536 16.1907835,13.0784536 C15.2996907,13.0264948 15.4036082,11.6634433 16.295134,11.716268 C16.295134,11.716268 19.0285979,11.926268 20.6536082,11.926268 C22.384268,11.926268 25.0649072,11.716268 25.0649072,11.716268 C25.957732,11.6634433 26.0620825,12.9732371 25.1701237,13.0784536 C25.1701237,13.0784536 24.2725361,13.1836701 23.2762268,13.2364948 L29.2571134,31.0250103 L30.9076701,25.5095876 C31.6225361,23.2208041 32.1663711,21.5763093 32.1663711,20.16 L32.1663711,20.16 Z" id="Shape"></path>
                        <path d="M35.5159794,13.0559381 C35.5869897,13.5824536 35.6276907,14.1492371 35.6276907,14.7575876 C35.6276907,16.4367216 35.3146392,18.3245567 34.3698557,20.6847835 L29.314701,35.2986186 C34.2338969,32.4296289 37.5441031,27.0995258 37.5441031,20.9956701 C37.5445361,18.1180206 36.8088866,15.412701 35.5159794,13.0559381 L35.5159794,13.0559381 Z" id="Shape"></path>
                        <path d="M20.9956701,0 C9.40020619,0 0.000432989691,9.40020619 0.000432989691,20.9956701 C0.000432989691,32.591134 9.40020619,41.9913402 20.9956701,41.9913402 C32.591134,41.9913402 41.9909072,32.591134 41.9909072,20.9956701 C41.9909072,9.40020619 32.591134,0 20.9956701,0 L20.9956701,0 Z M20.9965361,39.4007629 C10.8472577,39.4007629 2.5914433,31.1449485 2.5914433,20.9948041 C2.5914433,10.8463918 10.8468247,2.59057732 20.9965361,2.59057732 C31.1445155,2.59057732 39.3998969,10.8468247 39.3998969,20.9948041 C39.4003299,31.1440825 31.1440825,39.4007629 20.9965361,39.4007629 L20.9965361,39.4007629 Z" id="Shape"></path>
                    </g>
                </g>
            </g>
        </g>
    </g>
</svg>