<?xml version="1.0" encoding="UTF-8" standalone="no"?>
<svg width="33px" height="32px" viewBox="0 0 33 32" version="1.1" xmlns="http://www.w3.org/2000/svg" xmlns:xlink="http://www.w3.org/1999/xlink">
    <!-- Generator: Sketch 3.6.1 (26313) - http://www.bohemiancoding.com/sketch -->
    <title>icon_searchresultranking</title>
    <desc>Created with Sketch.</desc>
    <defs></defs>
    <g id="Welcome" stroke="none" stroke-width="1" fill="none" fill-rule="evenodd">
        <g id="08-Engine-overview-with-welcome" transform="translate(-74.000000, -386.000000)" fill="#FFFFFF">
            <g id="toplevelactions" transform="translate(60.000000, 345.000000)">
                <g id="Customize-your-Search">
                    <g id="Search-Result-Rankings" transform="translate(0.000000, 30.000000)">
                        <g id="icon_searchresultranking" transform="translate(14.000000, 11.000000)">
                            <path d="M12.5293694,14.4463423 C10.0436757,16.932036 10.0436757,20.9765045 12.5293694,23.4621982 C13.7334775,24.6663063 15.3344144,25.3294414 17.0373333,25.3294414 C18.7402523,25.3294414 20.3411892,24.6663063 21.5452973,23.4621982 C24.0309189,20.9765045 24.0309189,16.932036 21.5452973,14.4463423 C20.3411892,13.2422342 18.7402523,12.5790991 17.0373333,12.5790991 C15.3344144,12.5790991 13.7334054,13.2422342 12.5293694,14.4463423 L12.5293694,14.4463423 Z M17.0372613,13.9484685 C17.7946667,13.9484685 18.5262703,14.1158919 19.1902703,14.4326486 L16.6823784,20.3922162 L13.4579459,15.4564324 C13.4714234,15.4426667 13.483964,15.4283243 13.4976577,15.4147027 C14.4430991,14.4691892 15.7001802,13.9484685 17.0372613,13.9484685 L17.0372613,13.9484685 Z M20.5768649,22.4939099 C19.6314234,23.4394234 18.3743423,23.9600721 17.0372613,23.9600721 C15.7001802,23.9600721 14.4430991,23.4393514 13.4976577,22.4939099 C11.9165405,20.9127928 11.6166486,18.5286486 12.5971892,16.6425225 L16.2405045,22.2196036 C16.3676396,22.4142703 16.5838559,22.5298739 16.8135495,22.5298739 C16.8340901,22.5298739 16.8547027,22.5289369 16.8753153,22.5270631 C17.1274955,22.5042883 17.3465225,22.3441441 17.4447568,22.1107027 L20.3513514,15.2038198 C20.4281081,15.2717838 20.5037117,15.3414775 20.5767928,15.4146306 C22.5286486,17.3664144 22.5286486,20.5421982 20.5768649,22.4939099 L20.5768649,22.4939099 Z" id="Shape"></path>
                            <path d="M32.8991712,13.1374414 L24.9907027,0.382846847 C24.8541261,0.162594595 24.6049009,0.0383423423 24.3468829,0.0617657658 C24.0887928,0.0851891892 23.8660901,0.252324324 23.7713874,0.49354955 L19.8075676,10.5955315 C18.9256216,10.3042162 17.9930811,10.1528649 17.0372613,10.1528649 C15.1416216,10.1528649 13.3377297,10.7483964 11.8385586,11.8504505 L8.92367568,7.02255856 C8.79236036,6.80497297 8.5507027,6.67848649 8.29765766,6.6929009 C8.04396396,6.70767568 7.81938739,6.86176577 7.71423423,7.09311712 L0.0616216216,23.9291532 C-0.0948468468,24.2734414 0.0573693694,24.6793514 0.401585586,24.8358198 C0.493477477,24.8776216 0.589765766,24.8973694 0.684468468,24.8973694 C0.944720721,24.8973694 1.19351351,24.7481802 1.30818018,24.4958559 L8.42306306,8.84288288 L10.786955,12.7581982 C7.38241441,16.1921441 7.39106306,21.7553153 10.8136937,25.1779459 C12.476036,26.8402883 14.6862703,27.7558198 17.0372613,27.7558198 C18.6548468,27.7558198 20.2056937,27.3223784 21.5574054,26.5104865 L26.3522883,31.3053694 C26.7576937,31.7108468 27.2967928,31.9341261 27.8701982,31.9341261 C28.4436036,31.9341261 28.9827027,31.7108468 29.3881081,31.3053694 C29.7935856,30.899964 30.0168649,30.3608649 30.0168649,29.7874595 C30.0168649,29.2140541 29.7935856,28.674955 29.3881081,28.2695495 L24.5910631,23.4725045 C26.6121802,20.0927568 26.169009,15.6390631 23.2607568,12.7307387 C22.6070631,12.077045 21.8683964,11.5393874 21.069982,11.1269189 L24.547027,2.26587387 L31.7353514,13.8590991 C31.8649369,14.0681081 32.0887928,14.1830631 32.3179099,14.1830631 C32.441009,14.1830631 32.5657658,14.1498378 32.6781261,14.0802162 C32.9994955,13.8808649 33.0984505,13.4588108 32.8991712,13.1374414 L32.8991712,13.1374414 Z M28.4198919,29.2377658 C28.5667027,29.3845766 28.6475676,29.5797477 28.6475676,29.7873874 C28.6475676,29.995027 28.5667027,30.1901982 28.4198919,30.337009 C28.2730811,30.4838198 28.0778378,30.5646847 27.8702703,30.5646847 C27.6627027,30.5646847 27.4674595,30.4838198 27.3206486,30.337009 L22.6869189,25.7032793 C22.8844685,25.5372973 23.0762523,25.3624505 23.2609009,25.1778018 C23.4461261,24.9925766 23.6206847,24.8007207 23.7859459,24.6036757 L28.4198919,29.2377658 L28.4198919,29.2377658 Z M22.2925405,13.699027 C25.1903423,16.5968288 25.1903423,21.3117838 22.2925405,24.2095856 C20.8887928,25.6133333 19.0224865,26.3863784 17.0372613,26.3863784 C15.052036,26.3863784 13.1857297,25.6133333 11.781982,24.2095856 C8.88418018,21.3117838 8.88418018,16.5968288 11.781982,13.699027 C13.1857297,12.2952793 15.0521081,11.5222342 17.0372613,11.5222342 C19.0224144,11.5222342 20.8887928,12.2952793 22.2925405,13.699027 L22.2925405,13.699027 L22.2925405,13.699027 Z" id="Shape"></path>
                        </g>
                    </g>
                </g>
            </g>
        </g>
    </g>
</svg>