<?xml version="1.0" encoding="UTF-8" standalone="no"?>
<svg width="40px" height="51px" viewBox="0 0 40 51" version="1.1" xmlns="http://www.w3.org/2000/svg" xmlns:xlink="http://www.w3.org/1999/xlink">
    <!-- Generator: Sketch 3.6.1 (26313) - http://www.bohemiancoding.com/sketch -->
    <title>icon_builtformobile</title>
    <desc>Created with Sketch.</desc>
    <defs></defs>
    <g id="Pages" stroke="none" stroke-width="1" fill="none" fill-rule="evenodd">
        <g id="03-Sign-Up" transform="translate(-178.000000, -318.000000)" fill="#E0DFDF">
            <g id="Built-for-mobile" transform="translate(178.000000, 318.000000)">
                <g id="icon_builtformobile">
                    <path d="M1.78085101,0.393436849 C1.11683529,0.393548037 0.512727748,0.997633337 0.512611,1.66164906 L0.512611,49.1251025 C0.512727748,49.7891182 1.11683529,50.3932591 1.78085101,50.3933703 L30.8287591,50.3933703 L30.9503711,50.3933703 C31.0387435,50.3850312 31.126243,50.367797 31.2109684,50.3411119 C31.246215,50.3311049 31.2809836,50.3194302 31.3152073,50.3066435 C31.3569585,50.2855178 31.3976033,50.2627242 31.4368194,50.2371509 C31.8337166,50.0202228 32.0965655,49.5775271 32.0969991,49.1252693 L32.0969991,37.7110814 C32.0986669,37.6704978 32.0986669,37.6299697 32.0969991,37.5894972 C32.0389644,36.8291369 31.173031,36.2457326 30.4465498,36.4776155 C30.4051322,36.4926259 30.3645318,36.510416 30.3249377,36.529874 C29.868666,36.7273997 29.5537366,37.2140703 29.5605191,37.7112482 L29.5605191,47.8571683 L3.04909101,47.8571683 L3.04909101,2.93019483 L29.5605191,2.93019483 L29.5605191,23.6737368 C29.2444,24.3088492 29.5902063,25.1819543 30.2554451,25.4284028 C30.3727764,25.4689865 30.4961397,25.4927808 30.6202813,25.4978954 L30.7245202,25.4978954 C30.8053429,25.5056786 30.8869216,25.5056786 30.9677443,25.4978954 L35.5890024,25.4978954 L28.51813,32.5513946 L21.4646308,25.4978954 L26.2248741,25.4978954 C26.2999595,25.5045667 26.3756397,25.5045667 26.4507251,25.4978954 C26.5815936,25.4890004 26.7110444,25.4595355 26.8329344,25.4110575 C27.0670244,25.3113217 27.2697371,25.1393136 27.4062484,24.9246093 C27.4739008,24.8228721 27.5267486,24.7112948 27.5626067,24.5944916 C27.5626457,24.5889322 27.5626457,24.5828168 27.5626067,24.5772574 C27.6230987,24.3813995 27.6351403,24.1706979 27.597353,23.9692194 L27.597353,10.2270293 C27.5972363,9.56301362 26.9931288,8.95892832 26.329113,8.95881713 L6.2978702,8.95881713 L6.158885,8.95881713 C5.54247449,9.02686429 5.02599435,9.60687735 5.0296302,10.2270293 L5.0296302,40.5779571 C5.02974695,41.2419728 5.63385448,41.8460581 6.2978702,41.8461693 L26.329113,41.8461693 C26.9931288,41.8460581 27.5972363,41.2419728 27.597353,40.5779571 L27.597353,37.7635067 C27.6100285,37.0914854 27.0012399,36.4711666 26.329113,36.4711666 C25.6569861,36.4711666 25.0482198,37.0914854 25.060873,37.7635067 L25.060873,39.3096893 L7.56611021,39.3096893 L7.56611021,11.4952971 L25.060873,11.4952971 L25.060873,22.9615766 L18.5285683,22.9615766 C18.5053856,22.9610207 18.4822585,22.9610207 18.4590757,22.9615766 C18.3954928,22.9560172 18.331554,22.9560172 18.2679711,22.9615766 C17.7892727,23.0071638 17.3515249,23.3495677 17.1918642,23.8031599 C17.032198,24.2567575 17.1590081,24.7977992 17.5035524,25.1331983 L27.6147262,35.244372 C27.8835959,35.5141701 28.2786974,35.6524326 28.6571152,35.609236 C28.7396335,35.599785 28.821229,35.5825508 28.9003393,35.5569775 C29.0897428,35.4942674 29.2639413,35.3861925 29.4041607,35.2442608 L39.5153345,25.1330315 C39.5456888,25.1052344 39.57467,25.0764923 39.6022002,25.0461379 C39.607982,25.0461935 39.6137638,25.0461935 39.6195456,25.0461379 C39.6498999,25.0188968 39.6788811,24.9896543 39.7064113,24.9593 C40.0208459,24.5586334 40.0585554,23.9619922 39.797063,23.5249115 C39.5355763,23.0878864 38.9920051,22.8389917 38.4902908,22.926608 C38.4433694,22.935503 38.3969316,22.9471778 38.3513056,22.9610763 L32.0969713,22.9610763 L32.0969713,1.66159346 C32.0986391,1.62100978 32.0986391,1.5804817 32.0969713,1.54000921 C32.0369074,0.917522264 31.454098,0.390601551 30.8287313,0.393381255 L1.78085101,0.393436849 Z M12.152622,4.56299303 C11.4806174,4.55020639 10.860282,5.15907278 10.860282,5.83120524 C10.860282,6.5033377 11.4806174,7.1120929 12.152622,7.09947304 L20.4569881,7.09947304 C21.1289927,7.11225968 21.7493281,6.5033377 21.7493281,5.83120524 C21.7493281,5.15907278 21.1289927,4.55031758 20.4569881,4.56299303 L12.152622,4.56299303 Z M16.304805,42.7665293 C15.1561034,42.7665293 14.2026538,43.7373688 14.2026538,44.8860537 C14.2026538,46.0347942 15.1561034,46.9882328 16.304805,46.9882328 C17.4535067,46.9882328 18.4243294,46.0347942 18.4243294,44.8860537 C18.4243294,43.7373688 17.4535067,42.7665293 16.304805,42.7665293 L16.304805,42.7665293 Z" id="Shape"></path>
                </g>
            </g>
        </g>
    </g>
</svg>